%YAML 1.1
%TAG !u! tag:unity3d.com,2011:
--- !u!114 &11400000
MonoBehaviour:
  m_ObjectHideFlags: 0
  m_PrefabParentObject: {fileID: 0}
  m_PrefabInternal: {fileID: 0}
  m_GameObject: {fileID: 0}
  m_Enabled: 1
  m_EditorHideFlags: 0
  m_Script: {fileID: 11500000, guid: 08c400072ec161c4c9d47da2b853f27b, type: 3}
  m_Name: DefaultColors
  m_EditorClassIdentifier: 
  colors:
  - label: A
    type: 1
    color:
      serializedVersion: 2
      rgba: 4282605295
  - label: B
    type: 2
    color:
      serializedVersion: 2
      rgba: 4280409062
  - label: C
    type: 3
    color:
      serializedVersion: 2
      rgba: 4288015245
  - label: D
    type: 4
    color:
      serializedVersion: 2
      rgba: 4294950284
  - label: E
    type: 5
    color:
      serializedVersion: 2
      rgba: 4290076057
