%YAML 1.1
%TAG !u! tag:unity3d.com,2011:
--- !u!114 &11400000
MonoBehaviour:
  m_ObjectHideFlags: 0
  m_PrefabParentObject: {fileID: 0}
  m_PrefabInternal: {fileID: 0}
  m_GameObject: {fileID: 0}
  m_Enabled: 1
  m_EditorHideFlags: 0
  m_Script: {fileID: 11500000, guid: 41f7bce9f271ddd49be241c4adb2eee6, type: 3}
  m_Name: DefaultHighlightAnimation
  m_EditorClassIdentifier: 
  duration: 0.4
  ease: 5
  highlightFinalScalar: 2
  highlightStartingAlpha: 0.5
