%YAML 1.1
%TAG !u! tag:unity3d.com,2011:
--- !u!1001 &100100000
Prefab:
  m_ObjectHideFlags: 1
  serializedVersion: 2
  m_Modification:
    m_TransformParent: {fileID: 0}
    m_Modifications: []
    m_RemovedComponents: []
  m_ParentPrefab: {fileID: 0}
  m_RootGameObject: {fileID: 1909512183921040}
  m_IsPrefabParent: 1
--- !u!1 &1909512183921040
GameObject:
  m_ObjectHideFlags: 0
  m_PrefabParentObject: {fileID: 0}
  m_PrefabInternal: {fileID: 100100000}
  serializedVersion: 5
  m_Component:
  - component: {fileID: 4923180157872762}
  - component: {fileID: 114785133191809434}
  m_Layer: 0
  m_Name: DotCellColumn
  m_TagString: Untagged
  m_Icon: {fileID: 0}
  m_NavMeshLayer: 0
  m_StaticEditorFlags: 0
  m_IsActive: 1
--- !u!4 &4923180157872762
Transform:
  m_ObjectHideFlags: 1
  m_PrefabParentObject: {fileID: 0}
  m_PrefabInternal: {fileID: 100100000}
  m_GameObject: {fileID: 1909512183921040}
  m_LocalRotation: {x: 0, y: 0, z: 0, w: 1}
  m_LocalPosition: {x: 0, y: 0, z: 0}
  m_LocalScale: {x: 1, y: 1, z: 1}
  m_Children: []
  m_Father: {fileID: 0}
  m_RootOrder: 0
  m_LocalEulerAnglesHint: {x: 0, y: 0, z: 0}
--- !u!114 &114785133191809434
MonoBehaviour:
  m_ObjectHideFlags: 1
  m_PrefabParentObject: {fileID: 0}
  m_PrefabInternal: {fileID: 100100000}
  m_GameObject: {fileID: 1909512183921040}
  m_Enabled: 1
  m_EditorHideFlags: 0
  m_Script: {fileID: 11500000, guid: 9d07a0607e2be654c89727078f2f55d6, type: 3}
  m_Name: 
  m_EditorClassIdentifier: 
  cellPrefab: {fileID: 114110804510783084, guid: 80d753e28f1580146aea9c65263ad7da,
    type: 2}
  animationDuration: 0.6
  perDotDelay: 0.06
  animationEase:
    serializedVersion: 2
    m_Curve:
    - serializedVersion: 2
      time: 0
      value: 0
      inSlope: 0
      outSlope: 0
      tangentMode: 0
    - serializedVersion: 2
      time: 0.6
      value: 1
      inSlope: 4.8073854
      outSlope: -1.1906558
      tangentMode: 1
    - serializedVersion: 2
      time: 0.8
      value: 1
      inSlope: 1.4267546
      outSlope: -1.0689448
      tangentMode: 1
    - serializedVersion: 2
      time: 0.9
      value: 1
      inSlope: 1.4516875
      outSlope: -0.6246047
      tangentMode: 1
    - serializedVersion: 2
      time: 1
      value: 1
      inSlope: 0.57561404
      outSlope: 2
      tangentMode: 1
    m_PreInfinity: 2
    m_PostInfinity: 2
    m_RotationOrder: 0
